[
  {"id":"newtonZoteroPlugin2023","author":[{"family":"Newton","given":"Steven"}],"citation-key":"newtonZoteroPlugin2023","issued":{"date-parts":[[2023,5,24]]},"title":"A Zotero Plugin for FedWiki","type":"webpage","URL":"https://gitlab.com/cratermoon/wiki-plugin-zotero"}
]
